digraph { 
rankdir			="LR";
compound		=true;
edge			[color=gray];
node			[color=gray];

subgraph clusterData { 
fontcolor		=darkturquoise;
color			=black;
style			=filled;
fillcolor			=gray95;
label			="Data";

subgraph clusterSeq {
fontcolor		=darkturquoise;
color			=black;
style			=filled;
fillcolor			=white;
label			="Sequence";

startSeq		[shape=point;width=0.2;fillcolor=black;style=filled];
endSeq			[shape=point;width=0.2;peripheries=2;fillcolor=black;style=dotted];
outSeq			[label="out()";style=dashed];
itemSeq			[label="item()";style=dashed];
DataSeq			[label="Data = Dat<Sequence>";style=filled;fillcolor=gray95;color=black;shape=rect;fontcolor=darkturquoise];

startSeq		-> itemSeq		[arrowhead=none];
itemSeq			-> DataSeq		[constraint=false;label=",";fontcolor=firebrick];
startSeq		-> DataSeq		[style=invis];
DataSeq			-> startSeq		[constraint=false];
startSeq		-> outSeq		[arrowhead=none];
outSeq			-> endSeq		;
}

subgraph clusterRec {
fontcolor		=darkturquoise;
color			=black;
style			=filled;
fillcolor			=white;
label			="Record";

startRec		[shape=point;width=0.2;fillcolor=black;style=filled];
endRec			[shape=point;width=0.2;peripheries=2;fillcolor=black;style=dotted];
outRec			[label="out()";style=dashed];
itemRec			[label="item(key)";style=dashed];
DataRec			[label="Data = Dat<Record>";style=filled;fillcolor=gray95;color=black;shape=rect;fontcolor=darkturquoise];

startRec		-> itemRec		[arrowhead=none];
itemRec			-> DataRec		[constraint=false;label=",key:";fontcolor=firebrick];
startRec		-> DataRec		[style=invis];
DataRec			-> startRec		[constraint=false];
startRec		-> outRec		[arrowhead=none];
outRec			-> endRec;
}

subgraph clusterMsg {
fontcolor		=darkturquoise;
color			=black;
style			=filled;
fillcolor			=white;
label			="Message";

startMsg		[shape=point;width=0.2;fillcolor=black;style=filled];
startMsg2		[shape=point;width=0.2;fillcolor=black;style=filled];
endMsg			[shape=point;width=0.2;peripheries=2;fillcolor=black;style=dotted];
outMsg			[label="out()";style=dashed];
bindMsg			[label="bind<UserData>(d)";peripheries=3];
textMsg			[label="text(t)"];
#nullMsg			[label="null()"];

startMsg		-> textMsg			[arrowhead=none];								#;constraint=false
startMsg		-> bindMsg			[arrowhead=none];								#;constraint=false
#startMsg		-> nullMsg			[arrowhead=none];								#;constraint=false

startMsg		-> outMsg			[arrowhead=none];
outMsg			-> endMsg;

bindMsg			-> startMsg2		[label="d";fontcolor=firebrick];#[constraint=false];
textMsg			-> startMsg2		[label="t";fontcolor=firebrick];#[constraint=false];
#nullMsg			-> startMsg2		;#[constraint=false];

startMsg2		-> startMsg			[constraint=false];
}

startDat		[URL="\ref incas::data::Dat";shape=point;width=0.2;fillcolor=black;style=filled];
nullDat			[label="null()"];

startDat		-> bindDat			[arrowhead=none];
startDat		-> "sequence()"		[arrowhead=none];
startDat		-> "record()"		[arrowhead=none];
startDat		-> "message()"		[arrowhead=none];
startDat		-> nullDat			[arrowhead=none];

"sequence()"	-> startSeq			[label="[" ;fontcolor=firebrick];					#;lhead=clusterSeq		
"record()"		-> startRec			[label="{" ;fontcolor=firebrick];					#;lhead=clusterRec
"message()"		-> startMsg			[label="\"";fontcolor=firebrick];					#;lhead=clusterMsg
nullDat			-> OutDat 			[label="null";fontcolor=firebrick;arrowhead=none];

OutDat			[shape=point;width=0.2;peripheries=2;fillcolor=black;style=dotted];

endSeq			-> OutDat			[label="]" ;fontcolor=firebrick];					#;ltail=clusterSeq
endRec			-> OutDat			[label="}" ;fontcolor=firebrick];					#;ltail=clusterRec
endMsg			-> OutDat			[label="\"";fontcolor=firebrick];					#;ltail=clusterMsg

bindDat			[label="bind<UserData>(d)";peripheries=3];

bindDat 		-> OutDat																;#[lhead=clusterData];

}
}