digraph { 
rankdir			="LR";
compound		=true;
edge			[color=gray];
node			[color=gray];

subgraph clusterLegend { 
color			=white;
label			="Fluent API Legend";

start [shape=point;width=0.2;fillcolor=black;style=filled];
method;
class [label="Class\n<parent state>";shape=rect;color=black;fontcolor=darkturquoise];
start -> method [label="start";constraint=false;arrowhead=none];
method -> class [constraint=false;label="JSON";fontcolor=firebrick];
shortcut [label="method\nusually hidden";style=dashed];
Bind [label="method\ncalling Bind<UserData>::bind()";peripheries=3];
method -> shortcut -> Bind [style=invis];
}

}
}