============|        QDebug|          Text|          Json|           Xml|       Variant|          Cbor|   QCborStream|          Data|   QDataStream|    QByteArray|     Bindables|Bindables>Cbor|Bindables>Json|total(usecs)|variation(%)
builtin>    |           8.1|           2.6|           5.4|          71.3|          19.9|           2.2|           3.8|           4.3|           1.7|           0.2|           0.2|           1.6|           6.6|       127.8| 33.0
builtin>    |           8.0|           3.8|           6.1|          51.3|          18.4|           3.1|           4.5|           1.6|           0.6|           0.1|           0.1|           1.0|           4.3|       102.9| 19.5
builtin>    |           8.4|           2.6|           4.0|          39.4|          23.5|           2.9|           3.9|           3.4|           1.4|           0.4|           0.2|           4.4|          11.2|       105.8|  2.9
builtin>    |          10.0|           3.7|           7.1|          55.1|          11.2|           1.4|           2.7|           2.3|           0.8|           0.2|           0.2|           1.6|           6.4|       102.9|  2.8
builtin>    |           9.6|           3.5|           7.6|          35.5|           7.9|           1.0|           1.8|           1.4|           0.6|           0.1|           0.1|           1.0|           4.1|        74.2| 27.9
builtin>    |           7.4|           2.6|           4.0|          45.9|           8.8|           1.0|           1.7|           1.5|           1.2|           0.3|           0.2|           1.6|           6.0|        82.2| 10.9
builtin>    |           8.1|           2.7|           4.0|          37.1|           7.7|           0.9|           1.7|           2.2|           0.6|           0.1|           0.1|           1.0|           4.2|        70.5| 14.3
builtin>    |           7.5|           2.9|           4.3|          65.6|          11.3|           1.5|           2.4|           2.8|           0.8|           0.2|           0.2|           1.6|           6.5|       107.5| 52.6
builtin>    |           8.7|           3.6|           6.6|          39.8|          11.6|           1.4|           2.4|           4.3|           0.6|           0.1|           0.1|           1.6|          10.8|        91.8| 14.7
builtin>    |           7.5|           2.6|           6.1|          35.4|           8.3|           1.0|           1.7|           1.4|           0.6|           0.1|           0.1|           1.0|           4.1|        70.0| 23.8
builtin>    |           7.7|           3.0|           4.0|          44.3|           8.5|           1.0|           1.7|           1.4|           0.6|           0.1|           0.1|           1.0|           4.9|        78.4| 12.0
builtin>    |           7.2|           2.6|           4.7|          34.5|           7.9|           0.9|           1.7|           1.9|           0.6|           0.1|           0.1|           1.0|           4.1|        67.3| 14.1
builtin>    |           7.5|           2.6|           4.0|          54.3|          11.4|           1.5|           2.4|           2.2|           0.8|           0.2|           0.2|           1.6|           7.0|        95.6| 42.1
builtin>    |           7.7|           4.2|           6.1|          44.5|          12.7|           1.0|           1.7|           1.5|           0.6|           0.1|           0.1|           1.0|           8.8|        90.1|  5.8
builtin>    |           8.6|           3.7|           6.5|          50.1|          11.0|           1.7|           2.5|           2.2|           0.8|           0.2|           0.2|           1.6|           9.0|        98.1|  9.0
builtin>    |          18.2|           5.0|           8.3|          40.1|           9.2|           1.0|           1.7|           1.4|           0.6|           0.1|           0.1|           1.0|           4.6|        91.2|  7.0
builtin>    |           7.2|           2.6|           4.3|          53.0|          15.3|           1.0|           2.9|           1.5|           0.6|           0.1|           0.1|           1.0|           4.2|        93.8|  2.8
builtin>    |           8.5|           2.7|           8.2|          35.7|          13.0|           2.4|           5.6|           5.4|           2.1|           0.3|           0.3|           2.9|          13.0|        99.9|  6.6
builtin>    |          11.7|           2.9|           7.5|          39.5|           8.9|           1.0|           1.7|           1.5|           0.6|           0.1|           0.1|           1.0|           5.4|        81.7| 18.2
builtin>    |           7.4|           2.6|           6.7|          43.2|          20.6|           2.3|           5.6|           5.0|           2.0|           0.3|           0.2|           3.0|          12.8|       111.9| 36.9
builtin>    |          17.4|           8.0|          12.7|          77.1|          17.0|           2.8|           5.5|           4.1|           2.1|           0.4|           0.3|           3.5|          12.8|       163.6| 46.2
builtin>    |          17.4|           8.4|           9.5|          98.9|          21.7|           2.8|           6.1|           5.1|           0.6|           0.1|           0.1|           1.0|           4.2|       175.9|  7.5
builtin>    |           9.5|           3.7|           6.2|          87.8|          19.7|           2.3|           4.1|           3.9|           1.7|           0.2|           0.2|           4.5|          14.6|       158.5|  9.9
builtin>    |          14.6|           5.9|           9.3|          98.4|          12.5|           1.6|           2.5|           3.2|           0.6|           0.1|           0.1|           1.0|           4.2|       154.1|  2.8
builtin>    |           8.9|           2.8|           4.3|          38.6|          11.8|           1.4|           2.4|           2.2|           0.8|           0.2|           0.2|           1.6|           7.0|        82.1| 46.7
builtin>    |           7.7|           4.1|           6.5|          53.6|           7.7|           0.9|           1.7|           1.5|           0.7|           0.3|           0.2|           3.3|           7.0|        95.2| 16.0
builtin>    |           8.6|           3.7|           6.9|          47.4|          11.1|           1.3|           1.7|           1.5|           0.6|           0.1|           0.1|           1.0|           4.2|        88.3|  7.3
builtin>    |           7.4|           2.6|           4.4|          34.9|           7.6|           0.9|           1.7|           1.4|           0.6|           0.1|           0.1|           1.0|           6.3|        69.1| 21.8
builtin>    |           7.3|           2.9|           4.0|          58.9|          11.4|           1.5|           2.4|           2.2|           0.8|           0.2|           0.2|           1.6|           7.0|       100.4| 45.3
builtin>    |           7.7|           4.3|           6.1|          48.5|          18.3|           2.9|           2.4|           2.2|           0.8|           0.2|           0.2|           1.6|           8.5|       103.7|  3.3
builtin>    |          12.4|           5.4|           8.5|          55.4|          20.2|           1.1|           1.8|           1.6|           0.7|           0.1|           0.1|           1.1|          13.0|       121.3| 17.0
builtin>    |           8.2|           2.7|           4.6|          48.3|          11.9|           1.5|           2.4|           6.1|           1.3|           0.3|           0.2|           1.7|           7.4|        96.6| 20.4
builtin>    |           8.2|           3.9|           9.5|          77.6|           7.9|           1.0|           1.7|           1.4|           0.6|           0.1|           0.1|           1.0|           4.5|       117.6| 21.7
builtin>    |           7.7|           3.0|           4.6|          57.1|          14.3|           2.2|           2.0|           1.5|           0.7|           0.1|           0.1|           1.0|           4.2|        98.4| 16.3
builtin>    |           9.9|           2.8|           4.4|          38.8|          11.7|           1.6|           2.6|           4.6|           1.4|           0.4|           0.3|           2.7|          12.6|        93.7|  4.8
builtin>    |           8.3|           2.9|           6.4|          48.9|           9.7|           1.0|           1.7|           1.4|           0.6|           0.1|           0.1|           1.0|           4.2|        86.4|  7.8
builtin>    |           7.8|           2.6|           4.0|          78.0|          10.7|           1.5|           3.0|           2.2|           0.8|           0.2|           0.2|           1.6|           6.4|       119.1| 37.8
builtin>    |           9.1|           3.9|           7.0|          82.3|           8.2|           1.0|           1.7|           1.4|           0.6|           0.1|           0.1|           1.0|           4.2|       120.6|  1.3
builtin>    |           7.4|           2.8|           4.3|          93.0|          11.9|           1.7|           2.5|           2.3|           0.9|           0.3|           0.2|           1.7|           7.0|       136.0| 12.8
builtin>    |           8.8|           4.1|           7.9|          53.7|          11.1|           2.0|           2.3|           1.5|           0.6|           0.1|           0.1|           1.0|           5.9|        99.0| 27.2
builtin>    |          16.4|           6.1|           6.5|          52.2|          13.9|           2.9|           6.2|           7.1|           2.3|           0.4|           0.3|           3.7|          13.9|       131.8| 33.2
builtin>    |          17.7|           8.3|          12.6|         102.1|           8.1|           1.0|           2.0|           2.2|           0.7|           0.1|           0.1|           1.1|           4.5|       160.4| 21.7
builtin>    |           8.3|           2.8|           4.4|          40.5|           9.1|           3.8|           2.0|           1.5|           1.1|           0.1|           0.1|           2.3|          13.6|        89.7| 44.1
builtin>    |           8.2|           3.7|           6.5|          39.9|          12.1|           1.5|           2.4|           2.2|           0.8|           0.2|           0.2|           2.0|           6.7|        86.3|  3.8
builtin>    |           8.0|           3.9|          10.4|          54.2|           8.9|           1.0|           1.7|           1.5|           0.8|           0.1|           0.1|           1.1|           4.5|        96.0| 11.3
builtin>    |           8.3|           2.8|           5.3|          64.5|          13.2|           2.2|           4.7|           3.9|           2.6|           0.3|           0.2|           1.6|           6.5|       116.2| 21.0
builtin>    |           8.8|           5.3|          10.7|          52.7|          14.1|           2.3|           3.0|           1.6|           0.7|           0.1|           0.1|           1.1|           4.5|       105.0|  9.6
builtin>    |           8.4|           2.9|           4.3|          38.1|           7.7|           1.0|           2.2|           1.5|           0.6|           0.1|           0.1|           1.0|           4.2|        72.1| 31.4
builtin>    |           7.5|           2.7|           4.0|          52.8|          15.4|           1.5|           3.5|           3.3|           1.3|           0.2|           0.1|           2.0|           8.1|       102.3| 42.0
builtin>    |          13.8|           4.9|          10.4|          58.8|          14.1|           1.6|           2.5|           2.3|           0.9|           0.3|           0.2|           2.2|           7.3|       119.2| 16.6
builtin>    |           9.0|           3.9|           6.5|          63.5|          24.9|           1.6|           3.7|           3.0|           0.7|           0.1|           0.1|           1.1|           4.5|       122.6|  2.8
builtin>    |           8.8|           3.9|           6.5|          64.7|          18.2|           2.4|           4.3|           9.2|           0.7|           0.1|           0.1|           1.1|           4.6|       124.6|  1.6
builtin>    |          13.3|           4.8|           7.8|          65.8|          21.1|           2.2|           9.8|           3.4|           1.5|           0.2|           0.2|           1.8|           5.1|       136.9|  9.8
builtin>    |           9.2|           3.7|           7.7|          34.9|           8.0|           1.0|           1.7|           1.4|           0.6|           0.1|           0.1|           1.0|           4.6|        74.2| 45.8
builtin>    |           7.8|           9.0|          12.6|          46.8|           8.0|           1.0|           2.3|           1.6|           0.7|           0.1|           0.1|           1.1|           4.5|        95.6| 28.8
builtin>    |           7.9|           4.5|           6.5|          43.8|          10.5|           1.0|           3.0|           4.9|           1.1|           0.1|           0.1|           1.1|           4.5|        88.9|  6.9
builtin>    |          10.3|           3.0|           4.3|          40.3|           7.7|           1.4|           1.7|           2.6|           0.6|           0.1|           0.1|           1.3|           4.5|        78.1| 12.2
builtin>    |          10.4|           3.0|           5.9|          67.2|           9.5|           1.0|           1.8|           1.6|           0.7|           0.1|           0.1|           1.1|           4.6|       107.0| 37.0
builtin>    |           8.5|           3.0|           4.9|          36.3|           8.6|           1.0|           3.2|           2.5|           2.1|           0.4|           0.2|          13.1|           8.7|        92.5| 13.6
builtin>    |          16.0|           5.5|           9.1|          73.1|          26.2|           1.1|           4.3|           4.7|           2.3|           0.3|           0.2|           1.9|           8.1|       153.0| 65.5
builtin>    |           8.9|           3.4|           4.6|          43.4|          19.5|           2.2|           4.2|           3.4|           1.3|           0.2|           0.2|           1.9|           9.9|       103.0| 32.7
builtin>    |          20.8|           5.9|          10.2|         142.0|          27.0|           2.6|           6.1|           5.0|           2.7|           0.6|           0.4|           4.0|           5.4|       232.8|126.0
builtin>    |          10.4|           3.3|           5.2|          91.0|          22.2|           2.9|           5.1|           4.2|           1.7|           0.6|           0.3|           3.2|          13.1|       163.2| 29.9
builtin>    |          25.7|          12.6|          13.7|         129.8|          23.3|           2.8|           5.0|           4.7|           1.8|           0.4|           0.3|           3.1|          13.0|       236.2| 44.8
builtin>    |          16.9|           7.5|          15.2|          94.2|          23.6|           2.1|           4.1|           3.7|           1.5|           0.2|           0.2|           2.0|          13.2|       184.3| 22.0
builtin>    |          23.0|           5.8|           9.3|          97.1|          10.9|           1.3|           1.9|           2.8|           1.4|           0.2|           0.1|           2.8|          11.6|       168.2|  8.7
builtin>    |          16.0|           7.2|          12.5|          76.1|          18.4|           1.7|           2.7|           2.5|           1.0|           0.3|           0.2|           2.0|           7.7|       148.2| 11.9
builtin>    |          12.3|           7.3|          11.9|          68.1|          12.3|           1.9|           4.3|           4.2|           1.8|           0.6|           0.6|           3.5|          14.1|       143.0|  3.5
builtin>    |          16.6|           6.7|           7.8|          56.4|          14.4|           1.1|           1.9|           1.7|           0.7|           0.1|           0.2|           1.5|           4.7|       113.9| 20.3
builtin>    |           8.6|           3.1|           4.6|          36.9|           7.8|           0.9|           1.7|           1.4|           0.6|           0.1|           0.1|           1.0|           4.4|        71.3| 37.4
builtin>    |           7.4|           2.7|          11.3|          39.7|          10.4|           1.0|           1.7|           1.4|           0.6|           0.1|           0.1|           1.0|           4.1|        81.6| 14.5
builtin>    |           7.8|           2.6|           4.7|          34.7|          10.8|           1.3|           3.8|           3.8|           1.3|           0.3|           0.2|           5.8|           8.2|        85.5|  4.7
builtin>    |           8.2|           2.6|           4.0|          34.0|           7.6|           0.9|           1.7|           1.5|           0.6|           0.1|           0.1|           1.0|           4.3|        66.7| 22.0
builtin>    |           7.1|           2.6|           4.5|          39.7|          10.9|           1.4|           2.4|           2.2|           0.8|           0.3|           0.2|           1.6|           6.5|        80.3| 20.4
builtin>    |           7.6|           2.6|           4.0|          33.6|           8.3|           1.0|           1.7|           1.5|           0.6|           0.1|           0.1|           1.4|           4.2|        66.6| 17.0
builtin>    |           7.5|           2.6|           4.0|          34.7|           7.8|           1.0|           1.7|           1.7|           0.6|           0.2|           0.1|           2.9|           6.8|        71.6|  7.4
builtin>    |           7.9|           3.6|           6.2|          38.5|          10.8|           1.4|           2.3|           2.2|           0.8|           0.2|           0.2|           1.6|           6.8|        82.8| 15.7
builtin>    |           7.6|           3.8|           6.1|          42.7|          10.9|           1.4|           2.4|           2.2|           0.8|           0.2|           0.2|           1.6|           6.5|        86.4|  4.4
builtin>    |           7.7|           3.8|           6.1|          38.9|          10.7|           1.4|           2.8|           6.7|           1.6|           0.4|           0.2|           1.6|           6.9|        88.9|  2.8
builtin>    |           7.8|           4.4|           6.1|          38.6|          10.8|           1.4|           2.5|           2.2|           0.8|           0.2|           0.2|           1.6|           6.8|        83.5|  6.0
builtin>    |           7.9|           3.6|           6.2|          39.9|           7.9|           1.0|           1.7|           1.4|           0.6|           0.1|           0.1|           1.0|           4.5|        75.9|  9.2
builtin>    |           7.1|           2.6|           4.0|          34.1|           7.7|           0.9|           1.7|           1.7|           0.6|           0.1|           0.1|           1.0|           4.2|        65.9| 13.2
builtin>    |           7.3|           2.7|          18.6|          42.1|           7.8|           1.0|           1.7|           1.4|           0.6|           0.1|           0.1|           1.3|           4.2|        88.8| 34.8
builtin>    |           7.2|           2.6|           4.3|          34.1|           9.2|           0.9|           1.7|           1.4|           0.6|           0.1|           0.1|           1.0|           4.2|        67.5| 24.0
builtin>    |           9.2|           4.0|           7.6|          35.9|           8.0|           1.0|           1.7|           1.4|           0.6|           0.1|           0.1|           1.0|           4.2|        74.8| 10.8
builtin>    |           7.4|           2.6|           4.0|          34.1|           7.7|           0.9|           1.7|           1.8|           0.7|           0.3|           0.1|           1.4|           4.6|        67.3| 10.0
builtin>    |           7.2|           2.8|           4.0|          47.5|           8.1|           1.0|           1.7|           1.4|           0.6|           0.1|           0.1|           1.0|           4.2|        79.8| 18.5
builtin>    |           7.4|           2.6|           4.0|          33.7|          10.1|           0.9|           1.7|           1.8|           0.6|           0.1|           0.1|           1.0|           4.2|        68.3| 14.3
builtin>    |          12.5|           2.6|           4.1|          34.5|           7.6|           0.9|           1.7|           1.4|           0.6|           0.1|           0.1|           1.3|           4.1|        71.6|  4.8
builtin>    |           7.2|           2.8|           4.0|          36.6|          21.5|           2.4|           3.7|           2.2|           0.8|           0.2|           0.2|           1.8|           6.4|        90.0| 25.7
builtin>    |           8.0|           3.6|           6.1|          39.1|          10.9|           1.4|           2.3|           2.2|           0.8|           0.2|           0.2|           1.6|           6.5|        83.1|  7.7
builtin>    |          12.0|           3.7|           4.1|          40.4|          11.2|           1.7|           2.4|           2.2|           0.8|           0.2|           0.2|           1.6|           7.1|        87.6|  5.4
builtin>    |           8.0|           3.6|           6.9|          51.2|          11.7|           1.5|           2.4|           3.0|           0.8|           0.2|           0.2|           1.6|           6.4|        97.6| 11.5
builtin>    |           8.8|           3.7|           6.9|          40.1|          11.6|           1.4|           2.4|           4.2|           0.6|           0.1|           0.1|           1.4|           4.6|        85.9| 12.0
builtin>    |          11.0|           4.2|           7.1|          40.6|          11.5|           1.4|           2.4|           2.6|           1.0|           0.2|           0.2|           1.6|           6.7|        90.7|  5.5
builtin>    |           8.5|           3.6|           6.5|          43.0|          11.7|           1.5|           2.3|           6.0|           1.7|           0.4|           0.4|           3.0|           7.1|        95.8|  5.6
builtin>    |           7.7|           3.6|           6.4|          38.5|          10.8|           1.4|           2.4|           2.7|           0.8|           0.2|           0.2|           1.6|           6.4|        83.0| 13.4
builtin>    |           9.7|           2.6|           4.5|          35.3|           7.5|           0.9|           1.7|           1.7|           0.6|           0.1|           0.1|           1.0|           4.2|        70.1| 15.5
builtin>    |           7.3|           2.6|           4.0|          33.9|           7.9|           0.9|           1.7|           1.4|           0.6|           0.1|           0.1|           1.0|           4.4|        66.1|  5.7
builtin>    |           7.9|           2.9|           4.3|          41.4|          11.4|           1.4|           2.4|           2.6|           0.8|           0.2|           0.2|           1.6|           6.4|        83.8| 26.8
builtin>    |           8.5|           3.6|           6.3|          40.3|          15.7|           1.5|           2.5|           2.8|           0.8|           0.2|           0.2|           1.6|           6.4|        90.4|  8.0
builtin>    |           8.3|           3.6|           6.3|          39.8|          11.6|           1.4|           2.3|           2.2|           0.9|           0.3|           0.2|           1.9|           6.4|        85.5|  5.5
builtin>    |           8.4|           7.1|           4.6|          44.3|          11.0|           1.4|           2.4|           2.4|           0.8|           0.2|           0.2|           1.6|           6.4|        90.9|  6.3
builtin>    |           8.0|           3.6|           6.1|          40.9|          12.0|           1.5|           2.4|           2.2|           0.8|           0.7|           0.1|           1.9|           6.5|        86.6|  4.7
builtin>    |           8.7|           3.8|           6.1|          41.0|          11.8|           1.4|           2.3|           2.2|           0.8|           0.2|           0.2|           1.9|           6.5|        87.1|  0.6
builtin>    |           8.5|           4.1|           4.9|          52.9|          13.2|           1.0|           1.7|           1.5|           0.6|           0.1|           0.1|           1.0|           4.2|        93.8|  7.7
============|        QDebug|          Text|          Json|           Xml|       Variant|          Cbor|   QCborStream|          Data|   QDataStream|    QByteArray|      Bindable| Bindable>Cbor| Bindable>Json|total(usecs)|variation(%)
doubles>    |          15.0|          15.5|          19.7|          63.0|           7.5|           0.9|           1.5|           1.6|           1.1|           0.3|           0.0|           0.8|          15.4|       142.4| 15.4
doubles>    |          17.1|          22.0|          16.7|          61.2|           7.2|           0.9|           1.5|           1.6|           1.1|           0.3|           0.0|           0.8|          14.7|       145.3|  2.0
doubles>    |          30.3|          17.9|          18.4|          82.6|           6.8|           1.0|           2.7|           2.5|           1.7|           0.9|           0.0|           1.5|          18.7|       185.1| 27.4
doubles>    |          19.1|          16.7|          19.0|          77.1|           9.4|           1.5|           3.0|           4.8|           2.1|           0.6|           0.0|           1.4|          17.1|       171.9|  7.2
doubles>    |          17.5|          15.4|          15.7|          72.6|           6.9|           1.0|           1.6|           2.1|           1.2|           0.4|           0.0|           1.0|          16.3|       151.7| 11.7
doubles>    |          16.0|          14.7|          23.5|          86.1|          10.3|           1.5|           2.0|           2.1|           1.1|           0.3|           0.0|           1.9|          19.1|       178.6| 17.7
doubles>    |          20.5|          14.5|          15.9|          61.9|           7.0|           1.0|           1.4|           1.4|           1.1|           0.3|           0.0|           0.8|          42.6|       168.5|  5.7
doubles>    |          25.6|          17.7|          20.5|          89.1|          10.6|           1.9|           2.5|           2.5|           2.6|           0.4|           0.0|           1.0|          18.6|       192.8| 14.4
doubles>    |          19.6|          30.5|          23.1|          71.5|           7.0|           1.0|           1.6|           1.7|           1.1|           0.4|           0.0|           0.9|          19.1|       177.5|  7.9
doubles>    |          20.7|          32.2|          19.3|          83.6|          10.3|           1.7|           2.3|           2.2|           1.8|           1.0|           0.0|           1.7|          19.6|       196.3| 10.6
doubles>    |          19.2|          17.7|          19.1|          86.7|           7.0|           1.6|           1.6|           1.6|           1.2|           0.4|           0.0|           1.0|          17.1|       174.4| 11.2
doubles>    |          17.1|          28.8|          22.7|          70.2|           7.6|           0.9|           1.5|           1.5|           1.1|           0.4|           0.0|           0.9|          43.8|       196.7| 12.8
doubles>    |          20.8|          18.2|          20.0|          89.9|          17.5|           2.4|           1.8|           1.7|           1.2|           0.4|           0.0|           1.0|          17.1|       191.9|  2.4
doubles>    |          17.1|          15.3|          19.3|          74.4|           7.4|           1.0|           1.6|           1.6|           1.2|           0.4|           0.0|           1.0|          16.1|       156.4| 18.5
doubles>    |          18.0|          25.7|          31.1|          68.7|           7.0|           1.0|           4.2|           3.4|           2.3|           1.2|           0.0|           0.9|          22.4|       185.8| 18.8
doubles>    |          17.4|          15.9|          16.9|          92.3|           7.6|           0.9|           1.5|           1.5|           1.1|           0.4|           0.0|           0.9|          16.4|       172.9|  7.0
doubles>    |          15.9|          14.9|          18.1|          82.1|           6.9|           1.0|           3.3|           4.4|           3.9|           1.3|           0.1|           3.2|          23.0|       178.1|  3.0
doubles>    |          17.9|          25.6|          20.3|          88.0|           9.8|           1.1|           2.3|           2.2|           2.9|           1.0|           0.0|           1.9|          20.6|       193.7|  8.8
doubles>    |          45.5|          19.8|          22.7|          91.0|          11.3|           2.3|           2.8|           2.4|           1.9|           1.0|           0.0|           1.8|          21.1|       223.6| 15.4
doubles>    |          23.2|          27.7|          22.7|         105.9|          11.8|           2.5|           2.7|           2.4|           1.9|           1.0|           0.0|           1.8|          22.3|       226.0|  1.1
doubles>    |          21.2|          19.6|          31.8|          70.4|           8.1|           1.1|           1.8|           1.7|           1.3|           0.4|           0.0|           1.0|          17.5|       175.9| 22.2
doubles>    |          21.2|          22.0|          23.0|          71.8|           8.0|           1.2|           1.6|           1.6|           1.2|           0.4|           0.0|           1.7|          20.2|       174.0|  1.1
doubles>    |          23.0|          19.2|          18.4|          77.0|          13.2|           1.2|           1.9|           1.9|           1.5|           0.4|           0.0|           1.3|          26.9|       186.0|  6.9
doubles>    |          19.1|          17.0|          19.2|          88.8|          11.2|           2.2|           2.5|           2.4|           1.9|           1.0|           0.0|           1.8|          21.1|       188.3|  1.2
doubles>    |          30.5|          18.6|          19.4|          74.2|          12.8|           1.1|           1.8|           1.7|           1.3|           0.4|           0.0|           1.0|          18.2|       181.2|  3.8
doubles>    |          18.1|          16.5|          18.0|          72.9|          10.6|           1.7|           2.1|           2.1|           1.7|           0.9|           0.0|           2.7|          28.9|       176.3|  2.7
doubles>    |          21.6|          18.7|          24.2|          78.4|           7.5|           1.5|           2.1|           1.7|           1.3|           0.4|           0.0|           1.0|          22.8|       181.1|  2.8
doubles>    |          37.9|          26.7|          24.4|         120.9|          13.8|           2.0|           2.7|           3.0|           2.2|           1.1|           0.0|           1.9|          31.0|       267.7| 47.8
doubles>    |          35.0|          31.5|          22.1|         105.3|           9.2|           1.2|           1.9|           2.0|           2.1|           0.5|           0.0|           1.1|          18.8|       230.6| 13.9
doubles>    |          20.3|          17.9|          31.8|          93.5|          11.6|           2.0|           2.7|           2.7|           2.0|           1.0|           0.0|           1.8|          21.4|       208.6|  9.5
doubles>    |          19.7|          21.6|          21.0|          84.3|          14.6|           2.3|           4.0|           2.6|           3.7|           1.5|           0.1|           4.2|          22.4|       202.2|  3.1
doubles>    |          20.3|          19.6|          21.3|          86.7|           7.5|           1.1|           1.8|           2.4|           1.2|           0.4|           0.0|           1.0|          19.7|       182.9|  9.5
doubles>    |          29.5|          21.2|          20.5|          91.5|          11.0|           1.9|           2.4|           2.7|           1.8|           1.0|           0.0|           1.6|          18.4|       203.6| 11.3
doubles>    |          18.2|          17.0|          18.5|          95.6|           8.1|           1.6|           1.8|           1.8|           1.3|           0.4|           0.0|           1.0|          19.0|       184.1|  9.6
doubles>    |          22.1|          17.4|          18.5|          86.8|           8.0|           1.2|           3.8|           3.9|           1.2|           0.4|           0.0|           1.0|          19.3|       183.6|  0.3
doubles>    |          24.4|          19.1|          21.0|          82.5|          11.0|           1.9|           2.5|           2.4|           2.1|           1.0|           0.0|           1.8|          19.2|       188.9|  2.9
============|        QDebug|          Text|          Json|           Xml|       Variant|          Cbor|   QCborStream|          Data|   QDataStream|    QByteArray| QJsonDocument|      Bindable| Bindable>Cbor| Bindable>Json|total(usecs)|variation(%)
Person>     |           8.4|          11.7|          14.7|          52.2|          31.9|           4.9|           4.5|           1.9|           0.9|           0.1|          22.1|           0.0|           3.8|           7.4|       164.6| 30.9
Person>     |           8.1|           7.2|          10.2|          45.0|          15.4|           4.0|           4.6|           1.8|           0.8|           0.1|          21.4|           0.0|           3.8|           8.1|       130.5| 20.7
Person>     |           7.6|           7.3|           7.5|          36.5|          16.5|           7.3|           5.9|           2.7|           1.1|           0.4|          23.3|           0.0|           4.7|          12.2|       133.0|  1.9
Person>     |           8.6|           8.9|          13.3|          37.6|          13.9|           4.0|           4.1|           1.7|           0.8|           0.1|          20.7|           0.0|           4.1|           6.9|       124.7|  6.3
Person>     |           7.8|           6.8|           7.6|          32.5|          10.5|           3.8|           3.9|           2.8|           0.9|           0.1|          23.6|           0.0|           4.3|          10.9|       115.6|  7.3
Person>     |           8.1|          10.2|          39.8|          86.9|          27.5|          13.7|          27.1|           7.9|           3.9|           1.6|         224.2|           0.1|          33.4|          57.5|       541.9|368.8
Person>     |          30.4|          23.7|          41.6|        1128.1|          46.4|          41.6|          28.2|           9.3|           7.0|           0.9|          97.5|           0.2|          19.3|          35.8|      1510.0|178.7
Person>     |          52.9|          23.4|          28.5|         158.3|          71.6|          13.8|          14.7|           7.4|           2.5|           0.8|          80.1|           0.1|          21.0|          33.9|       509.0| 66.3
Person>     |          40.1|          28.0|          58.1|         154.9|          45.9|          15.0|          28.0|           7.2|           2.5|           1.5|          77.2|           0.1|          12.8|          48.8|       520.0|  2.2
Person>     |          28.1|          17.5|          16.8|          90.3|          39.6|          15.7|          17.1|           6.3|           2.0|           0.3|          99.6|           0.1|          10.9|          26.4|       370.5| 28.8
Person>     |          11.4|          17.1|          16.9|          41.4|          19.7|           6.1|          10.0|           2.7|           1.5|           0.5|          32.1|           0.0|           8.6|          12.8|       180.7| 51.2
Person>     |          15.8|          18.0|          23.7|          62.6|          30.4|           7.4|           9.7|           4.2|           1.8|           0.6|          41.0|           0.0|           3.8|           9.0|       227.8| 26.1
Person>     |          11.8|           6.5|          11.9|          38.8|          24.0|           8.8|          12.1|           5.2|           1.5|           0.1|          41.4|           0.0|           7.5|          17.3|       186.9| 18.0
Person>     |          16.3|           8.2|          14.8|          51.5|          21.7|           3.6|           8.8|           3.4|           1.1|           0.5|          33.0|           0.0|           8.2|          14.6|       186.0|  0.5
Person>     |          12.0|           6.4|           9.7|          50.7|          19.2|           8.2|           8.1|           4.1|           1.9|           0.6|          36.0|           0.0|           5.1|           6.8|       168.8|  9.3
============|        QDebug|          Text|          Json|           Xml|       Variant|          Cbor|   QCborStream|          Data|   QDataStream|    QByteArray|      Bindable| Bindable>Cbor| Bindable>Json|total(usecs)|variation(%)
Phone>      |           3.9|          10.6|           8.2|          30.6|           7.9|           5.9|           1.5|           3.9|           0.2|           0.5|           0.0|           4.9|           4.5|        82.6|  9.0
Phone>      |           2.5|           4.0|           5.1|          14.2|           5.1|           4.0|           1.4|           4.6|           0.2|           0.5|           0.0|           4.1|           4.6|        50.3| 39.1
Phone>      |           3.6|           9.5|           7.3|          23.8|          13.8|           7.7|           1.8|           5.2|           0.4|           0.6|           0.0|           7.9|          10.8|        92.3| 83.5
Phone>      |           2.9|           5.8|           8.1|          20.5|           8.0|           8.7|           2.9|           5.6|           0.4|           0.5|           0.0|           6.6|          12.7|        82.7| 10.4
Phone>      |           5.3|           8.4|          10.2|          20.4|           9.5|           5.6|           1.8|           8.2|           0.7|           1.1|           0.0|          10.9|          11.6|        93.7| 13.3
Phone>      |           4.0|           4.1|           8.1|          37.8|          12.6|          11.2|           3.1|          10.8|           0.5|           0.9|           0.0|          16.3|          20.0|       129.5| 38.2
Phone>      |           3.1|          10.7|          10.7|          32.0|          14.7|          10.3|           4.6|           9.4|           0.7|           2.2|           0.1|           4.6|           4.9|       108.0| 16.6
Phone>      |           2.7|           6.1|           5.2|          15.8|           6.8|           4.3|           1.5|           3.9|           0.2|           0.5|           0.0|           6.0|           5.4|        58.5| 45.9
Phone>      |           2.5|           7.3|          18.2|          23.3|          14.1|           6.1|           1.9|           6.5|           0.7|           1.1|           0.0|          10.6|           8.5|       101.0| 72.7
Phone>      |           3.1|           8.5|          11.8|          19.8|          19.0|           9.4|           1.9|           6.7|           0.4|           0.6|           0.0|          10.1|          10.6|       101.9|  0.9
Phone>      |           2.9|           6.3|          11.7|          19.9|          13.0|           7.3|           1.8|           5.4|           0.4|           0.6|           0.0|          13.0|           9.2|        91.3| 10.3
============|        Json>P|        P>Json|        Json>P|   P>JsonValue|   JsonValue>P|Json>JsonValue|     Json>Cbor|total(usecs)|variation(%)
Person<>Json|          41.6|           8.7|          47.7|          22.8|           8.4|          41.2|          37.3|       207.7| 36.4
Person<>Json|          48.9|           8.0|          17.9|          13.8|           4.0|          28.3|          30.2|       151.1| 27.3
Person<>Json|          53.4|          10.1|          27.6|          16.5|           7.2|          35.1|          18.6|       168.4| 11.5
Person<>Json|          32.3|           7.5|          16.6|          13.5|           4.1|          27.4|          23.9|       125.1| 25.7
Person<>Json|          32.3|           7.0|          17.2|          13.0|           3.7|          40.6|          31.4|       145.3| 16.1
Person<>Json|          52.6|           9.4|          22.4|          12.7|           3.7|          23.3|          18.9|       143.1|  1.5
Person<>Json|          32.0|           7.0|          16.6|          15.0|           4.0|          22.8|          22.0|       119.4| 16.6
Person<>Json|          50.2|          10.1|          26.8|          16.7|           6.4|          40.1|          31.6|       181.9| 52.4
Person<>Json|          49.6|           8.6|          33.4|          27.1|          12.1|          79.1|          22.8|       232.5| 27.8
Person<>Json|          40.5|          17.9|          33.1|          16.0|          13.8|          40.9|          22.2|       184.2| 20.8
Person<>Json|          46.9|           7.6|          18.4|          14.3|           3.7|          23.2|          19.4|       133.6| 27.5
Person<>Json|          39.7|          10.3|          28.6|          16.5|           6.9|          38.4|          36.7|       177.2| 32.6
Person<>Json|          50.3|          10.4|          28.1|          16.6|           7.0|          39.4|          18.4|       170.1|  4.0
Person<>Json|          32.0|           7.3|          16.5|          12.4|           3.7|          36.4|          33.2|       141.6| 16.8
Person<>Json|          50.8|          10.2|          22.9|          17.3|           6.5|          40.4|          23.4|       171.6| 21.1
Person<>Json|          46.8|           7.8|          17.5|          12.9|           3.7|          34.0|          31.7|       154.3| 10.1
Person<>Json|          39.6|           7.3|          16.7|          13.6|           3.8|          24.3|          18.3|       123.5| 20.0
Person<>Json|          34.0|           7.5|          16.5|          12.5|           3.8|          23.3|          18.6|       116.3|  5.9
Person<>Json|          31.4|           7.0|          19.9|          12.1|           4.1|          30.2|          31.6|       136.4| 17.3
Person<>Json|          46.3|           8.0|          16.6|          14.2|           4.0|          26.0|          22.6|       137.7|  1.0
Person<>Json|          50.9|           9.4|          27.2|          15.8|           6.6|          38.5|          32.3|       180.7| 31.2
============|        Cbor>P|        P>Cbor|        Cbor>P| QCborStream>P|   P>CborValue|   CborValue>P|Cbor>CborValue|CborValue>Cbor|     Cbor>Json|total(usecs)|variation(%)
Person<>Cbor|          15.0|           3.0|          19.2|           8.3|          10.1|           4.8|          22.9|           9.1|          17.5|       109.7|  2.0
Person<>Cbor|          15.0|           3.0|          16.7|           8.2|          11.0|           4.2|          22.4|           8.6|          17.5|       106.8|  2.6
Person<>Cbor|          15.0|           3.0|          17.6|           7.8|          10.3|           4.3|          25.2|           8.5|          17.2|       109.1|  2.1
Person<>Cbor|          15.7|           3.5|          17.0|           7.9|          10.9|           4.2|          23.0|           8.6|          18.7|       109.6|  0.5
Person<>Cbor|          15.2|           3.1|          21.0|          11.0|          21.7|          11.4|          43.5|          18.2|          27.2|       172.3| 57.3
============|    P>Settings|    Settings>P|    P>Settings|total(usecs)|variation(%)
Person<>Settings|         446.3|           1.0|          11.2|       458.5|  1.3
Person<>Settings|         431.6|           1.0|          11.2|       443.9|  3.2
Person<>Settings|         414.2|           1.0|          11.7|       426.9|  3.8
Person<>Settings|         431.7|           1.5|          14.3|       447.6|  4.8
Person<>Settings|         430.8|           1.0|          11.9|       443.8|  0.8
Person<>Settings|         434.6|           1.0|          11.2|       446.7|  0.7
